Lab 4 Team
…
There is no relationship between weight and receiving yards.

3.How do the performance of quarterback Brock Purdy relate to the performance of the ISU team?

offbioclean

## # A tibble: 152 x 21
##    Name  Opponent_Oppone Rushing_ATT Rushing_YDS Rushing_TD Receiving_REC
##    <chr> <fct>                  <dbl>       <dbl>      <dbl>         <dbl>
##  1 Aker UNI                        0           0          0             1
##  2 Aker Iowa                       0           0          0             0
##  3 Aker ULM                        1           8          0             0
##  4 Aker Baylor                     0           0          0             0
##  5 Aker TCU                        0           0          0             1
##  6 Aker West Virginia              0           0          0             0
##  7 Aker Texas Tech                 0           0          0             0
##  8 Aker Oklahoma State             0           0          0             4
##  9 Aker Oklahoma                   0           0          0             0
## 10 Aker Texas                      0           0          0             1
## #  with 142 more rows, and 15 more variables: Receiving_YDS <dbl>,
## #   Receiving_TD <dbl>, `Passing_CMP-ATT` <dbl>, Passing_YDS <dbl>,
## #   Passing_TD <dbl>, Passing_INT <dbl>, Position <chr>, Feet <int>,
## #   Inches <int>, Weight <chr>, Class <chr>, City <chr>, State <chr>,
## #   Highschool <chr>, cm <dbl>
…
